{
  "images" : [
    {
      "idiom" : "universal",
      "filename" : "ad3f2ba5-0c63-4149-a064-256135a5ea4b.jpeg",
      "scale" : "1x"
    },
    {
      "idiom" : "universal",
      "scale" : "2x"
    },
    {
      "idiom" : "universal",
      "scale" : "3x"
    }
  ],
  "info" : {
    "version" : 1,
    "author" : "xcode"
  }
}